{
  "timestamp": "2020-01-21T21:32:53.381Z",
  "fileName": "foxyGestures.2020-01-22.json",
  "addonId": "{e839c3f9-298e-4cd0-99e0-464431cb7c34}",
  "version": "1.2.6",
  "settings": {
    "gestureTimeout": 2000,
    "statusTimeout": 2000,
    "showStatusText": true,
    "blacklistUrlPatterns": [],
    "whitelistMode": false,
    "gestureDetector": {
      "style": "cardinal"
    },
    "gestureButton": 2,
    "gestureFidelity": 10,
    "drawTrails": true,
    "trailFidelity": 10,
    "trailWidth": 2,
    "trailColor": "purple",
    "mouseMappings": [
      {
        "command": "scrollDown",
        "gesture": "D"
      },
      {
        "command": "scrollBottom",
        "gesture": "RD"
      },
      {
        "command": "scrollTop",
        "gesture": "RU"
      },
      {
        "command": "scrollUp",
        "gesture": "U"
      },
      {
        "command": "userScript",
        "gesture": "R",
        "userScript": "userScript:1544552925027"
      },
      {
        "command": "saveMediaNow",
        "gesture": "L"
      },
      {
        "command": "closeTab",
        "gesture": "LD"
      },
      {
        "command": "undoClose",
        "gesture": "LU"
      },
      {
        "command": "saveMediaAs",
        "gesture": "LR"
      },
      {
        "command": "openLinkInNewBackgroundTab",
        "gesture": "DU"
      }
    ],
    "disableOnAlt": true,
    "disableOnShift": true,
    "canSelectStart": false,
    "wheelGestures": true,
    "wheelMappings": {
      "up": {
        "command": "nextTab"
      },
      "down": {
        "command": "previousTab"
      },
      "left": null,
      "right": null
    },
    "chordGestures": true,
    "chordMappings": [
      {
        "chord": [
          0,
          2
        ],
        "mapping": {
          "command": "nextTab"
        }
      },
      {
        "chord": [
          2,
          0
        ],
        "mapping": {
          "command": "previousTab"
        }
      }
    ],
    "userScripts": [
      {
        "id": "userScript:1544552925027",
        "label": "dl",
        "script": " (function () {\n    let src = data.element.mediaInfo && data.element.mediaInfo.source;\n    if (!src) {\n        setStatus('Quick Save: No media found');\n        return;\n    }\n    \n    // var domain = data.context.frameUrl.replace(/^(https?:\\/\\/)?([^@\\n]+@)?(www\\.)?(?:[^:\\/\\n?]+)/ig, '');\n\n    var matches = data.context.frameUrl.match(/^https?\\:\\/\\/([^\\/?#]+)(?:[\\/?#]|$)/i);\n    var domain = matches && matches[1];\n    domain = domain.replace(/[:/\\\\?!#*\"<>]/ig, '');\n    // var domain = data.context.frameUrl.replace(/^(?:https?:\\/\\/)?(?:[^@\\n]+@)?(?:www\\.)?([^:\\/\\n?]+)/ig, '')[1];\n    // domain: /^(?:https?:\\/\\/)?(?:[^@\\n]+@)?(?:www\\.)?([^:\\/\\n?]+)/i\n\n    // var fullurl = encodeURIComponent(data.context.frameUrl) + \"/\";\n\n    // var pagetitle = document.title.replace(/[^a-zA-Z0-9-_]/g, '_');\n    var pagetitle = document.title.replace(/[:/\\\\?!#*\"<>|]/ig, '_');\n    pagetitle = pagetitle.replace(/(^\\([0-9]+\\) )/g, '');\n    pagetitle = pagetitle.replace(/ /g, '_');\n    pagetitle = pagetitle.substr(0, 60); \n    let placeholders = [], rules = [];\n    \n    // -- Define placeholders --\n    placeholders.push([ '%MEDIADIR%', 'inbox/' + domain + \"/\" + pagetitle + \"/\"]);\n    placeholders.push([ '%MISC%', 'misc/' + domain + \"/\" + pagetitle + \"/\"]);\n    // placeholders.push([ '%AUDIO_DIR%', 'Audio/' ]);\n\n    // -- Define rules --\n    // Capturing group 1 must be the filename.\n    // Defaults\n    rules.push({ name: 'MEDIA', regex: /([^\\/]+\\.(gif|png|jpe?g|mp4|mkv|webm|flac|mp3|m4a|aac))($|\\?|#)/i, target: '%MEDIADIR%/%F%' });\n    rules.push({ name: 'MISC', regex: /(?=\\w+\\.\\w{3,4}$).+/i, target: '%MISC%/%F%' });\n    //rules.push({ name: 'MISC2', regex:/([^\\/]+)($|\\?|#)/i, target: '%MISC%/%F%' });\n    // rules.push({ name: 'Video', regex: /([^\\/]+\\.(webm|mp4|mkv))($|\\?|#)/i, target: '%VIDEO_DIR%/%F%' });\n    // rules.push({ name: 'Audio', regex: /([^\\/]+\\.(mp3|flac|m4a|aac))($|\\?|#)/i, target: '%AUDIO_DIR%/%F%' });\n\n\n    // Evaluate rules\n    let match = null;\n    for (let i = 0; i < rules.length; i++) {\n        if ((match = src.match(rules[i].regex)) != null) {\n            // Evaluate placeholders\n            let filename = match[1];\n            placeholders.push([ '%F%', filename ]);\n            let target = placeholders.reduce((target, placeholder) => target.replace(placeholder[0], placeholder[1]), rules[i].target);\n            // data.context.frameUrl+\"/\"\n            // -- Privileged operation begin --\n            return executeInBackground((rule, src, target) => { \n                // Start the download\n                return browser.downloads.download({ url: src, filename: target }).then(id => {\n                    if (rule.erase) {\n                        // Remove the download from history on completion\n                        let listener = (downloadDelta) => {\n                            if ((downloadDelta.id === id) && (downloadDelta.state.current !== 'in_progress')) {\n                                browser.downloads.onChanged.removeListener(listener);\n                                browser.downloads.erase({ id: downloadDelta.id });\n                            }\n                        };\n                        browser.downloads.onChanged.addListener(listener);\n                    }\n                });\n            }, [ rules[i], src, target ])\n            // -- Privileged operation end --\n                .then(x => setStatus('Quick Save: SAVED! \"' + filename + '\" using ' + rules[i].name))\n                .catch(err => setStatus('Quick Save: Failed to save \"' + filename + ': ' + err + \"\\n pagetitle: \" + pagetitle+ \"\\n domain: \" + domain));\n        } else {\n            match = []\n        }\n    }\n    \n    setStatus('Quick Save: No matching rule');\n    return;\n}());\n"
      }
    ],
    "sawXSSWarning": true,
    "scrollDuration": 300,
    "scrollAmount": 100,
    "nextTabWrap": true,
    "newTabUrl": null,
    "newWindowUrl": null,
    "newPrivateWindowUrl": null,
    "useRelPrevNext": true,
    "insertRelatedTab": true,
    "zoomStep": 0.1,
    "activeTabAfterClose": "default",
    "statusTemplate": "<div style=\"all: initial; display: block; position: fixed; bottom: 0; right: 0; z-index: 2147483647\">\r\n  <div style=\"all: initial; background: #fff; border: 1px solid #ccc; color: #333; font-family: sans-serif; font-size: 12px; padding: 2px\" data-mg-status></div>\r\n</div>"
  }
}