{
  "Left Margin": 25,
  "Custom Left Margin": 0,
  "Right Margin": 25,
  "Custom Right Margin": 0,
  "Style Thread Stats": false,
  "Rounded Corners": false,
  "Underline All Links": false,
  "Show Banner": true,
  "Reduce Banner Opacity": false,
  "Show Board Banners": true,
  "Show Board Name": true,
  "Show Reply to Thread Button": true,
  "Show Checkboxes": false,
  "Show Blotter": true,
  "Show 4chan Ads": false,
  "Show Top Ad": true,
  "Show Middle Ad": true,
  "Show Bottom Ad": true,
  "Reduce Ad Opacity": false,
  "Show Navigation Links": true,
  "Show Top Links": true,
  "Show Bottom Links": true,
  "Show Previous/Next buttons": true,
  "Sidebar Position": 1,
  "Disable In Catalog View": false,
  "SS-like Sidebar": true,
  "Minimal Sidebar": false,
  "Autohide Style": 2,
  "Transparent QR": false,
  "Remove Background": false,
  "Remove Controls": false,
  "Expanding Form Inputs": true,
  "Force QR to Sidebar Size": true,
  "Hide Mascots in Catalog": true,
  "Mascots Overlap Posts": true,
  "Reduce Mascot Opacity": false,
  "Grayscale Mascots": false,
  "Fit Width": false,
  "Show Reply Header": true,
  "Show Post Info On Hover": false,
  "Show File Info": true,
  "Underline QuoteLinks": false,
  "Indent OP": true,
  "Allow Wrapping Around OP": false,
  "OP Background": true,
  "Recolor Even Replies": false,
  "Reduce Thumbnail Opacity": false,
  "Backlink Icons": true,
  "Backlinks on Bottom": false,
  "Borders": 2,
  "Margin Between Replies": "",
  "Post Message Margin": 2,
  "Justified Text": true,
  "Show Background": true,
  "Unified Thumbnail Size": false,
  "Show Header Background Gradient": false,
  "Show Header Shadow": true,
  "Highlight Current Board": true,
  "Highlight (OP) quotes": true,
  "Highlight (You) quotes": true,
  "Post Decoration Style": 0,
  "Post Decoration Width": 3,
  "Custom Decoration Width": 0,
  "Post Highlight Style": "solid",
  "Font Family": "sans-serif",
  "Font Size": 14,
  "Backlink Font Size": 12,
  "Bitmap Font": false,
  "Version Fix": 1,
  "Selected Theme": 34,
  "NSFW Theme": 34
}