{
    "config": {
        "conf": [
            {
                "id": "0",
                "title": "add-todo",
                "nmhost": "runwith",
                "contexts": ["page"],
                "action": [
                    "browser-actions",
                    "add-todo",
                    "%%TAB-URL%%",
                    "%%TAB-TITLE%%"
                ],
                "shell": false,
                "wait": false
            },
            {
                "id": "1",
                "title": "youtube-dl",
                "nmhost": "runwith",
                "contexts": ["page"],
                "action": ["browser-actions", "youtube-dl", "%%TAB-URL%%"],
                "shell": false,
                "wait": false
            },
            {
                "id": "2",
                "title": "git clone & view",
                "nmhost": "runwith",
                "contexts": ["page"],
                "action": ["browser-actions", "git-clone", "%%TAB-URL%%"],
                "shell": false,
                "wait": false
            }
        ]
    }
}
